## Title: Guidelime_WOTLK
## Author: Ardo
## Version: 0.1.0
## Interface: 30400
## Dependencies: Guidelime
## Notes: Ardo's WOTLK Dailies

Guides\SonsofHodir_dailies.lua
Guides\Kaluak_dailies.lua
